ALU/Verilog/D_Flip_Flop/simulation/qsim/D_Flip_Flop.msim.vcd
$comment
	File created using the following command:
		vcd file D_Flip_Flop.msim.vcd -direction
$end
$date
	Sun Jun 05 01:40:17 2022
$end
$version
	ModelSim Version 10.1d
$end
$timescale
	1ps
$end
$scope module D_Flip_Flop_vlg_vec_tst $end
$var reg 1 ! Clk $end
$var reg 4 " D [3:0] $end
$var wire 1 # Q [3] $end
$var wire 1 $ Q [2] $end
$var wire 1 % Q [1] $end
$var wire 1 & Q [0] $end
$var wire 1 ' sampler $end
$scope module i1 $end
$var wire 1 ( gnd $end
$var wire 1 ) vcc $end
$var wire 1 * unknown $end
$var tri1 1 + devclrn $end
$var tri1 1 , devpor $end
$var tri1 1 - devoe $end
$var wire 1 . Q[0]~output_o $end
$var wire 1 / Q[1]~output_o $end
$var wire 1 0 Q[2]~output_o $end
$var wire 1 1 Q[3]~output_o $end
$var wire 1 2 Clk~input_o $end
$var wire 1 3 Clk~inputclkctrl_outclk $end
$var wire 1 4 D[0]~input_o $end
$var wire 1 5 Q[0]~reg0feeder_combout $end
$var wire 1 6 Q[0]~reg0_q $end
$var wire 1 7 D[1]~input_o $end
$var wire 1 8 Q[1]~reg0feeder_combout $end
$var wire 1 9 Q[1]~reg0_q $end
$var wire 1 : D[2]~input_o $end
$var wire 1 ; Q[2]~reg0_q $end
$var wire 1 < D[3]~input_o $end
$var wire 1 = Q[3]~reg0feeder_combout $end
$var wire 1 > Q[3]~reg0_q $end
$upscope $end
$upscope $end
$enddefinitions $end
#0
$dumpvars
0!
b110 "
0&
0%
0$
0#
x'
0(
1)
x*
1+
1,
1-
0.
0/
00
01
02
03
04
05
06
17
18
09
1:
0;
0<
0=
0>
$end
#40000
b1110 "
b1100 "
b1101 "
1!
14
07
1<
12
13
0'
15
08
1=
1;
19
10
1/
1$
1%
#80000
b1111 "
b1110 "
0!
04
17
02
03
1'
05
18
#120000
b110 "
1!
0<
12
13
0'
0=
1>
11
1#
#160000
b111 "
b1111 "
0!
14
1<
02
03
1'
15
1=
#200000
b1011 "
b1001 "
1!
07
0:
12
13
0'
08
0;
16
00
1.
0$
1&
#240000
b1000 "
b0 "
b100 "
b110 "
0!
04
17
1:
0<
02
03
1'
05
18
0=
#280000
b100 "
1!
07
12
13
0'
08
0>
1;
06
01
10
0.
0#
1$
0&
#320000
b0 "
0!
0:
02
03
1'
#360000
b10 "
b110 "
1!
17
1:
12
13
0'
18
09
0/
0%
#400000
b1110 "
b1100 "
0!
07
1<
02
03
1'
08
1=
#440000
1!
12
13
0'
1>
11
1#
#480000
b100 "
0!
0<
02
03
1'
0=
#520000
b0 "
b10 "
b1010 "
1!
17
0:
1<
12
13
0'
18
1=
0>
0;
01
00
0#
0$
#560000
b1011 "
0!
14
02
03
1'
15
#600000
b1001 "
b1 "
b0 "
1!
04
07
0<
12
13
0'
05
08
0=
1>
19
16
11
1/
1.
1#
1%
1&
#640000
b100 "
b110 "
0!
17
1:
02
03
1'
18
#680000
b111 "
b11 "
b1 "
1!
14
07
0:
12
13
0'
15
08
0>
06
01
0.
0#
0&
#720000
b1001 "
b1000 "
b1100 "
0!
04
1:
1<
02
03
1'
05
1=
#760000
b1110 "
b110 "
b10 "
1!
17
0:
0<
12
13
0'
18
0=
1>
09
11
0/
1#
0%
#800000
b11 "
b1 "
b1001 "
b1101 "
0!
14
07
1:
1<
02
03
1'
15
08
1=
#840000
b1111 "
b111 "
b11 "
1!
17
0:
0<
12
13
0'
18
0=
16
1.
1&
#880000
b1 "
b101 "
0!
07
1:
02
03
1'
08
#920000
b100 "
b110 "
1!
04
17
12
13
0'
05
18
0>
1;
01
10
0#
1$
#960000
b1110 "
b1010 "
b1011 "
0!
14
0:
1<
02
03
1'
15
1=
