ALU/Verilog/Four_Bit_4_To_1_Mux/simulation/qsim/Four_Bit_4_To_1_Mux.msim.vcd
$comment
	File created using the following command:
		vcd file Four_Bit_4_To_1_Mux.msim.vcd -direction
$end
$date
	Sun Jun 05 01:27:23 2022
$end
$version
	ModelSim Version 10.1d
$end
$timescale
	1ps
$end
$scope module Four_Bit_4_To_1_Mux_vlg_vec_tst $end
$var reg 4 ! A [3:0] $end
$var reg 4 " B [3:0] $end
$var reg 4 # C [3:0] $end
$var reg 4 $ D [3:0] $end
$var reg 2 % S [1:0] $end
$var wire 1 & Y [3] $end
$var wire 1 ' Y [2] $end
$var wire 1 ( Y [1] $end
$var wire 1 ) Y [0] $end
$var wire 1 * sampler $end
$scope module i1 $end
$var wire 1 + gnd $end
$var wire 1 , vcc $end
$var wire 1 - unknown $end
$var tri1 1 . devclrn $end
$var tri1 1 / devpor $end
$var tri1 1 0 devoe $end
$var wire 1 1 B[0]~input_o $end
$var wire 1 2 C[1]~input_o $end
$var wire 1 3 B[2]~input_o $end
$var wire 1 4 C[3]~input_o $end
$var wire 1 5 Y[0]~output_o $end
$var wire 1 6 Y[1]~output_o $end
$var wire 1 7 Y[2]~output_o $end
$var wire 1 8 Y[3]~output_o $end
$var wire 1 9 D[0]~input_o $end
$var wire 1 : S[1]~input_o $end
$var wire 1 ; C[0]~input_o $end
$var wire 1 < A[0]~input_o $end
$var wire 1 = S[0]~input_o $end
$var wire 1 > Y~0_combout $end
$var wire 1 ? Y~1_combout $end
$var wire 1 @ D[1]~input_o $end
$var wire 1 A B[1]~input_o $end
$var wire 1 B A[1]~input_o $end
$var wire 1 C Y~2_combout $end
$var wire 1 D Y~3_combout $end
$var wire 1 E C[2]~input_o $end
$var wire 1 F D[2]~input_o $end
$var wire 1 G A[2]~input_o $end
$var wire 1 H Y~4_combout $end
$var wire 1 I Y~5_combout $end
$var wire 1 J D[3]~input_o $end
$var wire 1 K B[3]~input_o $end
$var wire 1 L A[3]~input_o $end
$var wire 1 M Y~6_combout $end
$var wire 1 N Y~7_combout $end
$upscope $end
$upscope $end
$enddefinitions $end
#0
$dumpvars
b0 !
b10 "
b100 #
b1000 $
b0 %
0)
0(
0'
0&
x*
0+
1,
x-
1.
1/
10
01
02
03
04
05
06
07
08
09
0:
0;
0<
0=
0>
0?
0@
1A
0B
0C
0D
1E
0F
0G
0H
0I
1J
0K
0L
0M
0N
$end
#40000
b1 !
b11 "
b101 #
b1001 $
b1 %
1=
19
1;
11
1<
0*
1>
1D
16
1(
1?
15
1)
#80000
b11 !
b111 "
b101 "
b111 #
b1011 $
b11 %
b10 !
b100 "
b110 #
b1010 $
b10 %
0=
1:
09
1@
0;
12
01
0A
13
0<
1B
1*
1C
0>
0D
1I
0?
06
17
05
0(
1'
0)
1D
16
1(
#120000
b11 !
b101 "
b111 #
b1011 $
b11 %
1=
19
1;
11
1<
0*
1M
1H
1>
1?
15
1)
1N
0I
18
07
1&
0'
#160000
b111 !
b1111 #
b1011 #
b1111 $
b101 !
b111 "
b1001 #
b1101 $
b1 %
b100 !
b110 "
b1000 #
b1100 $
b0 %
0=
0:
01
1A
09
0@
1F
0;
02
0E
14
0<
0B
1G
1*
0M
0C
0>
1I
17
1'
0N
0D
0?
08
06
05
0&
0(
0)
#200000
b101 !
b111 "
b1001 #
b1101 $
b1 %
1=
19
1;
11
1<
0*
1>
1D
16
1(
1?
15
1)
#240000
b1111 "
b1011 "
b111 !
b1001 "
b1011 #
b1111 $
b11 %
b110 !
b1000 "
b1010 #
b1110 $
b10 %
0=
1:
09
1@
0;
12
0<
1B
01
0A
03
1K
1*
1M
0H
1C
0>
0D
0?
06
05
0(
0)
1N
0I
1D
18
07
16
1&
0'
1(
#280000
b111 !
b1001 "
b1011 #
b1111 $
b11 %
1=
19
1;
11
1<
0*
1H
1>
1?
15
1)
1I
17
1'
#320000
b1111 !
b111 $
b1011 !
b1111 #
b11 $
b1001 !
b1011 "
b1101 #
b1 $
b1 %
b1000 !
b1010 "
b1100 #
b0 $
b0 %
0=
0:
01
1A
0;
02
1E
09
0@
0F
0J
0<
0B
0G
1L
1*
0H
0C
0>
0I
0D
0?
07
06
05
0'
0(
0)
#360000
b1001 !
b1011 "
b1101 #
b1 $
b1 %
1=
19
1;
11
1<
0*
0M
1>
0N
1D
08
16
0&
1(
1N
1?
18
15
1&
1)
#400000
b1111 "
b1011 !
b1101 "
b1111 #
b11 $
b11 %
b1010 !
b1100 "
b1110 #
b10 $
b10 %
0=
1:
09
1@
0;
12
0<
1B
01
0A
13
1*
1M
1C
0>
0N
0D
1I
0?
08
06
17
05
0&
0(
1'
0)
1N
1D
18
16
1&
1(
#440000
b1011 !
b1101 "
b1111 #
b11 $
b11 %
1=
19
1;
11
1<
0*
1H
1>
0N
1?
08
15
0&
1)
0I
07
0'
#480000
b111 #
b1111 !
b11 #
b111 $
b1101 !
b1111 "
b1 #
b101 $
b1 %
b1100 !
b1110 "
b0 #
b100 $
b0 %
0=
0:
01
1A
09
0@
1F
0<
0B
1G
0;
02
0E
04
1*
0C
0>
1N
1I
18
17
1&
1'
0D
0?
06
05
0(
0)
#520000
b1101 !
b1111 "
b1 #
b101 $
b1 %
1=
19
1;
11
1<
0*
0M
1>
0N
1D
08
16
0&
1(
1N
1?
18
15
1&
1)
#560000
b111 "
b11 "
b1111 !
b1 "
b11 #
b111 $
b11 %
b1110 !
b0 "
b10 #
b110 $
b10 %
0=
1:
09
1@
0;
12
0<
1B
01
0A
03
0K
1*
0H
1C
0>
0N
0D
0?
08
06
05
0&
0(
0)
0I
1D
07
16
0'
1(
#600000
b1111 !
b1 "
b11 #
b111 $
b11 %
1=
19
1;
11
1<
0*
1M
1H
1>
1?
15
1)
1I
17
1'
#640000
b111 !
b1111 $
b11 !
b111 #
b1011 $
b1 !
b11 "
b101 #
b1001 $
b1 %
b0 !
b10 "
b100 #
b1000 $
b0 %
0=
0:
01
1A
0;
02
1E
09
0@
0F
1J
0<
0B
0G
0L
1*
0M
0H
0C
0>
1N
18
1&
0N
0I
0D
0?
08
07
06
05
0&
0'
0(
0)
#680000
b1 !
b11 "
b101 #
b1001 $
b1 %
1=
19
1;
11
1<
0*
1>
1D
16
1(
1?
15
1)
#720000
b111 "
b11 !
b101 "
b111 #
b1011 $
b11 %
b10 !
b100 "
b110 #
b1010 $
b10 %
0=
1:
09
1@
0;
12
0<
1B
01
0A
13
1*
1C
0>
0D
1I
0?
06
17
05
0(
1'
0)
1D
16
1(
#760000
b11 !
b101 "
b111 #
b1011 $
b11 %
1=
19
1;
11
1<
0*
1M
1H
1>
1?
15
1)
1N
0I
18
07
1&
0'
#800000
b1111 #
b111 !
b1011 #
b1111 $
b101 !
b111 "
b1001 #
b1101 $
b1 %
b100 !
b110 "
b1000 #
b1100 $
b0 %
0=
0:
01
1A
09
0@
1F
0<
0B
1G
0;
02
0E
14
1*
0M
0C
0>
1I
17
1'
0N
0D
0?
08
06
05
0&
0(
0)
#840000
b101 !
b111 "
b1001 #
b1101 $
b1 %
1=
19
1;
11
1<
0*
1>
1D
16
1(
1?
15
1)
#880000
b1111 "
b1011 "
b111 !
b1001 "
b1011 #
b1111 $
b11 %
b110 !
b1000 "
b1010 #
b1110 $
b10 %
0=
1:
09
1@
0;
12
0<
1B
01
0A
03
1K
1*
1M
0H
1C
0>
0D
0?
06
05
0(
0)
1N
0I
1D
18
07
16
1&
0'
1(
#920000
b111 !
b1001 "
b1011 #
b1111 $
b11 %
1=
19
1;
11
1<
0*
1H
1>
1?
15
1)
1I
17
1'
#960000
b1111 !
b111 $
b1011 !
b1111 #
b11 $
b1001 !
b1011 "
b1101 #
b1 $
b1 %
b1000 !
b1010 "
b1100 #
b0 $
b0 %
0=
0:
01
1A
0;
02
1E
09
0@
0F
0J
0<
0B
0G
1L
1*
0H
0C
0>
0I
0D
0?
07
06
05
0'
0(
0)
