ALU/Verilog/Four_Bit_2_To_1_Mux/simulation/qsim/Four_Bit_2_To_1_Mux.msim.vcd
$comment
	File created using the following command:
		vcd file Four_Bit_2_To_1_Mux.msim.vcd -direction
$end
$date
	Sun Jun 05 01:25:54 2022
$end
$version
	ModelSim Version 10.1d
$end
$timescale
	1ps
$end
$scope module Four_Bit_2_To_1_Mux_vlg_vec_tst $end
$var reg 4 ! A [3:0] $end
$var reg 4 " B [3:0] $end
$var reg 1 # S $end
$var wire 1 $ Y [3] $end
$var wire 1 % Y [2] $end
$var wire 1 & Y [1] $end
$var wire 1 ' Y [0] $end
$var wire 1 ( sampler $end
$scope module i1 $end
$var wire 1 ) gnd $end
$var wire 1 * vcc $end
$var wire 1 + unknown $end
$var tri1 1 , devclrn $end
$var tri1 1 - devpor $end
$var tri1 1 . devoe $end
$var wire 1 / Y[0]~output_o $end
$var wire 1 0 Y[1]~output_o $end
$var wire 1 1 Y[2]~output_o $end
$var wire 1 2 Y[3]~output_o $end
$var wire 1 3 B[0]~input_o $end
$var wire 1 4 A[0]~input_o $end
$var wire 1 5 S~input_o $end
$var wire 1 6 Y~0_combout $end
$var wire 1 7 B[1]~input_o $end
$var wire 1 8 A[1]~input_o $end
$var wire 1 9 Y~1_combout $end
$var wire 1 : A[2]~input_o $end
$var wire 1 ; B[2]~input_o $end
$var wire 1 < Y~2_combout $end
$var wire 1 = B[3]~input_o $end
$var wire 1 > A[3]~input_o $end
$var wire 1 ? Y~3_combout $end
$upscope $end
$upscope $end
$enddefinitions $end
#0
$dumpvars
b0 !
b1000 "
0#
0'
0&
0%
0$
x(
0)
1*
x+
1,
1-
1.
0/
00
01
02
03
04
05
06
07
08
09
0:
0;
0<
1=
0>
0?
$end
#40000
b1 !
b1001 "
1#
13
14
15
0(
16
1?
1/
12
1'
1$
#80000
b11 !
b1011 "
b10 !
b1010 "
0#
03
17
04
18
05
1(
06
19
0?
0/
10
02
0'
1&
0$
#120000
b11 !
b1011 "
1#
13
14
15
0(
16
1?
1/
12
1'
1$
#160000
b111 !
b1111 "
b101 !
b1101 "
b100 !
b1100 "
0#
03
07
1;
04
08
1:
05
1(
06
09
1<
0?
0/
00
11
02
0'
0&
1%
0$
#200000
b101 !
b1101 "
1#
13
14
15
0(
16
1?
1/
12
1'
1$
#240000
b111 !
b1111 "
b110 !
b1110 "
0#
03
17
04
18
05
1(
06
19
0?
0/
10
02
0'
1&
0$
#280000
b111 !
b1111 "
1#
13
14
15
0(
16
1?
1/
12
1'
1$
#320000
b1111 !
b111 "
b1011 !
b11 "
b1001 !
b1 "
b1000 !
b0 "
0#
03
07
0;
0=
04
08
0:
1>
05
1(
06
09
0<
0/
00
01
0'
0&
0%
#360000
b1001 !
b1 "
1#
13
14
15
0(
16
0?
1/
02
1'
0$
#400000
b1011 !
b11 "
b1010 !
b10 "
0#
03
17
04
18
05
1(
06
19
1?
0/
10
12
0'
1&
1$
#440000
b1011 !
b11 "
1#
13
14
15
0(
16
0?
1/
02
1'
0$
#480000
b1111 !
b111 "
b1101 !
b101 "
b1100 !
b100 "
0#
03
07
1;
04
08
1:
05
1(
06
09
1<
1?
0/
00
11
12
0'
0&
1%
1$
#520000
b1101 !
b101 "
1#
13
14
15
0(
16
0?
1/
02
1'
0$
#560000
b1111 !
b111 "
b1110 !
b110 "
0#
03
17
04
18
05
1(
06
19
1?
0/
10
12
0'
1&
1$
#600000
b1111 !
b111 "
1#
13
14
15
0(
16
0?
1/
02
1'
0$
#640000
b111 !
b1111 "
b11 !
b1011 "
b1 !
b1001 "
b0 !
b1000 "
0#
03
07
0;
1=
04
08
0:
0>
05
1(
06
09
0<
0/
00
01
0'
0&
0%
#680000
b1 !
b1001 "
1#
13
14
15
0(
16
1?
1/
12
1'
1$
#720000
b11 !
b1011 "
b10 !
b1010 "
0#
03
17
04
18
05
1(
06
19
0?
0/
10
02
0'
1&
0$
#760000
b11 !
b1011 "
1#
13
14
15
0(
16
1?
1/
12
1'
1$
#800000
b111 !
b1111 "
b101 !
b1101 "
b100 !
b1100 "
0#
03
07
1;
04
08
1:
05
1(
06
09
1<
0?
0/
00
11
02
0'
0&
1%
0$
#840000
b101 !
b1101 "
1#
13
14
15
0(
16
1?
1/
12
1'
1$
#880000
b111 !
b1111 "
b110 !
b1110 "
0#
03
17
04
18
05
1(
06
19
0?
0/
10
02
0'
1&
0$
#920000
b111 !
b1111 "
1#
13
14
15
0(
16
1?
1/
12
1'
1$
#960000
b1111 !
b111 "
b1011 !
b11 "
b1001 !
b1 "
b1000 !
b0 "
0#
03
07
0;
0=
04
08
0:
1>
05
1(
06
09
0<
0/
00
01
0'
0&
0%
